{
  "name": "fow2022",
  "version": "1.0.0",
  "description": "Formula One World 2025",
  "private": true,
  "scripts": {
    "lint": "eslint src",
    "dev": "webpack-dev-server --config webpack.config.js --progress --colors --inline --watch --hot",
    "prod": "webpack-dev-server --config webpack-prod.config.js --progress --colors",
    "build-dev": "webpack --config webpack.config.js --progress",
    "build-prod": "webpack -p --config webpack-prod.config.js --progress",
    "start": "node server"
  },
  "keywords": [
    "react",
    "redux",
    "router",
    "babel",
    "webpack"
  ],
  "author": "Krystian Głowacki",
  "license": "ISC",
  "devDependencies": {
    "@babel/core": "^7.7.2",
    "@babel/plugin-proposal-class-properties": "^7.7.0",
    "@babel/plugin-proposal-decorators": "^7.7.0",
    "@babel/plugin-proposal-object-rest-spread": "^7.6.2",
    "@babel/plugin-transform-runtime": "^7.6.2",
    "@babel/preset-env": "^7.7.1",
    "@babel/preset-react": "^7.7.0",
    "alias-resolve-loader": "^2.0.4",
    "assets-webpack-plugin": "^5.1.2",
    "babel-eslint": "^10.0.3",
    "babel-loader": "^8.0.6",
    "babel-plugin-syntax-dynamic-import": "^6.18.0",
    "babel-plugin-transform-react-jsx-img-import": "^0.1.4",
    "clean-webpack-plugin": "^3.0.0",
    "copy-webpack-plugin": "^5.1.2",
    "css-loader": "^3.2.0",
    "eslint": "^6.6.0",
    "eslint-config-airbnb": "^18.0.1",
    "eslint-plugin-import": "^2.18.2",
    "eslint-plugin-jsx-a11y": "^6.2.3",
    "eslint-plugin-react": "^7.16.0",
    "favicons-webpack-plugin": "4.2.0",
    "file-loader": "^4.2.0",
    "html-webpack-plugin": "^4.5.2",
    "json-loader": "^0.5.7",
    "less": "^2.7.3",
    "less-loader": "^5.0.0",
    "mini-css-extract-plugin": "^1.6.0",
    "optimize-css-assets-webpack-plugin": "^6.0.1",
    "postcss": "^8.4.5",
    "postcss-loader": "^4.3.0",
    "style-loader": "^1.0.0",
    "uglifyjs-webpack-plugin": "^2.2.0",
    "url-loader": "^2.2.0",
    "webpack": "^4.41.2",
    "webpack-bundle-analyzer": "^3.6.0",
    "webpack-cli": "^3.3.10",
    "webpack-dev-middleware": "^3.7.2",
    "webpack-dev-server": "^3.9.0",
    "webpack-hot-middleware": "^2.25.0",
    "write-file-webpack-plugin": "^4.5.1"
  },
  "dependencies": {
    "axios": "^0.21.1",
    "disqus-react": "^1.1.2",
    "formik": "^2.2.9",
    "highcharts-3d": "^0.1.7",
    "highcharts-series-label": "^0.1.7",
    "leaflet": "^1.7.1",
    "prop-types": "^15.7.2",
    "react": "^17.0.2",
    "react-dom": "^17.0.2",
    "react-highcharts": "^16.1.0",
    "react-lazyload": "^3.2.0",
    "react-leaflet": "^2.8.0",
    "react-loadable": "^5.5.0",
    "react-owl-carousel": "^2.3.1",
    "react-parallax": "^2.2.4",
    "react-redux": "^7.2.4",
    "react-redux-loading-bar": "^5.0.0",
    "react-router-dom": "^5.2.0",
    "react-scroll": "^1.8.2",
    "react-scroll-top": "^1.0.4",
    "react-select": "^1.3.0",
    "redux": "^4.1.0",
    "redux-logger": "^3.0.6",
    "redux-promise": "^0.6.0",
    "redux-thunk": "^2.3.0",
    "semantic-ui-less": "^2.4.1",
    "semantic-ui-react": "^0.88.1",
    "smartmenus": "^1.1.0",
    "yup": "^0.32.9"
  }
}
