[
  {
    "label": "Wyścig",
    "options": [
      {
        "value": "starts",
        "label": "Najwięcej wyścigów",
        "shortLabel": "wyścigi",
        "showLink": 1,
        "showFilters": true
      },
      {
        "value": "points-places",
        "label": "Najwięcej razy ze zdobytymi punktami",
        "shortLabel": "miejsca",
        "showLink": 1,
        "showFilters": true
      },
      {
        "value": "no-points-places",
        "label": "Najwięcej razy bez zdobytych punktów",
        "shortLabel": "miejsca",
        "showLink": 1,
        "showFilters": true
      },
      {
        "value": "completed",
        "label": "Najwięcej razy sklasyfikowany w wyścigu",
        "shortLabel": "wyścigi",
        "showLink": 1,
        "showFilters": true
      },
      {
        "value": "incomplete",
        "label": "Najwięcej razy niesklasyfikowany w wyścigu",
        "shortLabel": "wyścigi",
        "showLink": 1,
        "showFilters": true
      },
      {
        "value": "finished",
        "label": "Najwięcej ukończonych wyścigów",
        "shortLabel": "wyścigi",
        "showLink": 1,
        "showFilters": true
      },
      {
        "value": "retirement",
        "label": "Najwięcej nieukończonych wyścigów",
        "shortLabel": "wyścigi",
        "showLink": 1,
        "showFilters": true
      },
      {
        "value": "disq",
        "label": "Najwięcej dyskwalifikacji",
        "shortLabel": "dyskw.",
        "showLink": 1,
        "showFilters": true
      },
      {
        "value": "penalty",
        "label": "Najwięcej kar",
        "shortLabel": "kary",
        "showLink": 1,
        "showFilters": true
      },
      {
        "value": "not-qualified",
        "label": "Najwięcej razy niezakwalifikowany do wyścigu",
        "shortLabel": "wyścigi",
        "showLink": 1,
        "showFilters": true
      },
      {
        "value": "not-started",
        "label": "Najwięcej razy nie wystartował w wyścigu",
        "shortLabel": "wyścigi",
        "showLink": 1,
        "showFilters": true
      },
      {
        "value": "race-places",
        "label": "Najwięcej miejsc...",
        "shortLabel": "wyścigi",
        "showLink": 1,
        "showFilters": true
      },
      {
        "value": "polepos-bestlaps-wins",
        "label": "Najwięcej pole position, najlepszych okrążeń i wygranych w jednym wyścigu",
        "shortLabel": "wyścigi",
        "showLink": 1,
        "showFilters": true
      },
      {
        "value": "polepos-wins",
        "label": "Najwięcej pole position i wygranych w jednym wyścigu",
        "shortLabel": "wyścigi",
        "showLink": 1,
        "showFilters": true
      },
      {
        "value": "bestlaps-wins",
        "label": "Najwięcej najlepszych okrążeń i wygranych w jednym wyścigu",
        "shortLabel": "wyścigi",
        "showLink": 1,
        "showFilters": true
      },
      {
        "value": "races-by-gp",
        "label": "Wyścigi wg GP",
        "shortLabel": "wyścigi",
        "showLink": 0,
        "showFilters": true
      },
      {
        "value": "races-by-circuit",
        "label": "Wyścigi wg torów",
        "shortLabel": "wyścigi",
        "showLink": 0,
        "showFilters": true
      },
      {
        "value": "races-by-teams",
        "label": "Wyścigi wg zespołów",
        "shortLabel": "wyścigi",
        "showLink": 0,
        "showFilters": true
      },
      {
        "value": "races-different-gp",
        "label": "Wyścigi w różnych GP",
        "shortLabel": "gp",
        "showLink": 0,
        "showFilters": true
      },
      {
        "value": "races-different-circuit",
        "label": "Wyścigi na różnych torach",
        "shortLabel": "tory",
        "showLink": 0,
        "showFilters": true
      },
      {
        "value": "average-place",
        "label": "Średnio zajmowane miejsce na wyścig",
        "shortLabel": "miejsce",
        "showLink": 0,
        "showFilters": true
      },
      {
        "value": "average-points",
        "label": "Średnio zdobywane punkty na wyścig",
        "shortLabel": "punkty",
        "showLink": 0,
        "showFilters": true
      }
    ]
  },
  {
    "label": "Pola startowe",
    "options": [
      {
        "value": "grid-places",
        "label": "Najwięcej startów z miejsca...",
        "shortLabel": "wyścigi",
        "showLink": 1,
        "showFilters": true
      },
      {
        "value": "wins-from-place",
        "label": "Najwięcej wygranych startując z miejsca...",
        "shortLabel": "wygrane",
        "showLink": 1,
        "showFilters": true
      },
      {
        "value": "points-from-place",
        "label": "Najwięcej punktów startując z miejsca...",
        "shortLabel": "pkt",
        "showLink": 1,
        "showFilters": true
      },
      {
        "value": "podium-from-place",
        "label": "Najwięcej podium startując z miejsca...",
        "shortLabel": "podium",
        "showLink": 1,
        "showFilters": true
      },
      {
        "value": "completed-from-place",
        "label": "Najwięcej razy sklasyfikowany w wyścigu startując z miejsca...",
        "shortLabel": "wyścigi",
        "showLink": 1,
        "showFilters": true
      },
      {
        "value": "incomplete-from-place",
        "label": "Najwięcej razy niesklasyfikowany w wyścigu startując z miejsca...",
        "shortLabel": "wyścigi",
        "showLink": 1,
        "showFilters": true
      },
      {
        "value": "finished-from-place",
        "label": "Najwięcej ukończonych wyścigów startując z miejsca...",
        "shortLabel": "wyścigi",
        "showLink": 1,
        "showFilters": true
      },
      {
        "value": "retirement-from-place",
        "label": "Najwięcej nieukończonych wyścigów startując z miejsca...",
        "shortLabel": "wyścigi",
        "showLink": 1,
        "showFilters": true
      },
      {
        "value": "race-grid-diff-up",
        "label": "Największy awans w wyścigu względem pozycji startowej",
        "shortLabel": "miejsca",
        "showLink": 0,
        "showFilters": true
      },
      {
        "value": "race-grid-diff-down",
        "label": "Największa strata pozycji w wyścigu względem pozycji startowej",
        "shortLabel": "miejsca",
        "showLink": 0,
        "showFilters": true
      },
      {
        "value": "race-pos-higher-than-grid",
        "label": "Najwięcej wyścigów ukończonych na pozycji wyższej niż startowa",
        "shortLabel": "wyścigi",
        "showLink": 1,
        "showFilters": true
      },
      {
        "value": "race-pos-higher-than-grid-percent",
        "label": "Największy procent wyścigów ukończonych na pozycji wyższej niż startowa",
        "shortLabel": "%",
        "showLink": 0,
        "showFilters": true
      },
      {
        "value": "race-pos-lower-than-grid",
        "label": "Najwięcej wyścigów ukończonych na pozycji nizszej niż startowa",
        "shortLabel": "wyścigi",
        "showLink": 1,
        "showFilters": true
      },
      {
        "value": "race-pos-lower-than-grid-percent",
        "label": "Największy procent wyścigów ukończonych na pozycji nizszej niż startowa",
        "shortLabel": "%",
        "showLink": 0,
        "showFilters": true
      },
      {
        "value": "race-win-lowest-grid",
        "label": "Wygrana z najniższej pozycji startowej",
        "shortLabel": "poz. startowa",
        "showLink": 0,
        "showFilters": true
      },
      {
        "value": "race-podium-lowest-grid",
        "label": "Podium z najniższej pozycji startowej",
        "shortLabel": "poz. startowa",
        "showLink": 0,
        "showFilters": true
      },
      {
        "value": "avg-grid-pos",
        "label": "Średnia pozycja na starcie do wyścigu",
        "shortLabel": "poz. startowa",
        "showLink": 0,
        "showFilters": true
      }
    ]
  },
  {
    "label": "Pole position",
    "options": [
      {
        "value": "polepos",
        "label": "Najwięcej pole positions",
        "shortLabel": "pp",
        "showLink": 1,
        "showFilters": true
      },
      {
        "value": "polepos-percent",
        "label": "Procent pole positions",
        "shortLabel": "%",
        "showLink": 0,
        "showFilters": true
      },
      {
        "value": "polepos-no-win-gp-number",
        "label": "Najwięcej GP bez pole position",
        "shortLabel": "gp",
        "showLink": 1,
        "showFilters": true
      },
      {
        "value": "polepos-no-win-percent",
        "label": "Procent GP bez pole position",
        "shortLabel": "%",
        "showLink": 0,
        "showFilters": true
      },
      {
        "value": "wins-from-polepos",
        "label": "Najwięcej wygranych startując z pole position",
        "shortLabel": "wygrane",
        "showLink": 1,
        "showFilters": true
      },
      {
        "value": "points-from-polepos",
        "label": "Najwięcej punktów startując z pole position",
        "shortLabel": "pkt",
        "showLink": 1,
        "showFilters": true
      },
      {
        "value": "podium-from-polepos",
        "label": "Najwięcej podium startując z pole position",
        "shortLabel": "podium",
        "showLink": 1,
        "showFilters": true
      },
      {
        "value": "completed-from-polepos",
        "label": "Najwięcej razy sklasyfikowany w wyścigu startując z pole position",
        "shortLabel": "wyścigi",
        "showLink": 1,
        "showFilters": true
      },
      {
        "value": "incomplete-from-polepos",
        "label": "Najwięcej razy niesklasyfikowany w wyścigu startując z pole position",
        "shortLabel": "wyścigi",
        "showLink": 1,
        "showFilters": true
      },
      {
        "value": "finished-from-polepos",
        "label": "Najwięcej ukończonych wyścigów startując z pole position",
        "shortLabel": "wyścigi",
        "showLink": 1,
        "showFilters": true
      },
      {
        "value": "retirement-from-polepos",
        "label": "Najwięcej nieukończonych wyścigów startując z pole position",
        "shortLabel": "wyścigi",
        "showLink": 1,
        "showFilters": true
      },
      {
        "value": "wins-outside-polepos",
        "label": "Najwięcej wygranych startując spoza pole position",
        "shortLabel": "wygrane",
        "showLink": 1,
        "showFilters": true
      },
      {
        "value": "points-outside-polepos",
        "label": "Najwięcej punktów startując spoza pole position",
        "shortLabel": "pkt",
        "showLink": 1,
        "showFilters": true
      },
      {
        "value": "podium-outside-polepos",
        "label": "Najwięcej podium startując spoza pole position",
        "shortLabel": "podium",
        "showLink": 1,
        "showFilters": true
      },
      {
        "value": "completed-outside-polepos",
        "label": "Najwięcej razy sklasyfikowany startując spoza pole position",
        "shortLabel": "wyścigi",
        "showLink": 1,
        "showFilters": true
      },
      {
        "value": "incomplete-outside-polepos",
        "label": "Najwięcej razy niesklasyfikowany startując spoza pole position",
        "shortLabel": "wyścigi",
        "showLink": 1,
        "showFilters": true
      },
      {
        "value": "finished-outside-polepos",
        "label": "Najwięcej ukończonych wyścigów startując spoza pole position",
        "shortLabel": "wyścigi",
        "showLink": 1,
        "showFilters": true
      },
      {
        "value": "retirement-outside-polepos",
        "label": "Najwięcej nieukończonych wyścigów startując spoza pole position",
        "shortLabel": "wyścigi",
        "showLink": 1,
        "showFilters": true
      },
      {
        "value": "polepos-first-win-diff-asc",
        "label": "Najmniejsza liczba dni która minęła od pierwszego startu do pierwszego pole position",
        "shortLabel": "dni",
        "showLink": 0,
        "showFilters": false
      },
      {
        "value": "polepos-first-win-diff-desc",
        "label": "Największa liczba dni która minęła od pierwszego startu do pierwszego pole position",
        "shortLabel": "dni",
        "showLink": 0,
        "showFilters": false
      },
      {
        "value": "polepos-first-win-gp-number-asc",
        "label": "Najmniejsza liczba GP która minęła od pierwszego startu do pierwszego pole position",
        "shortLabel": "gp",
        "showLink": 0,
        "showFilters": false
      },
      {
        "value": "polepos-first-win-gp-number-desc",
        "label": "Największa liczba GP która minęła od pierwszego startu do pierwszego pole position",
        "shortLabel": "gp",
        "showLink": 0,
        "showFilters": false
      },
      {
        "value": "polepos-last-win-diff-asc",
        "label": "Najmniejsza liczba dni która minęła od ostatniego pole position do ostatniego startu",
        "shortLabel": "dni",
        "showLink": 0,
        "showFilters": false
      },
      {
        "value": "polepos-last-win-diff-desc",
        "label": "Największa liczba dni która minęła od ostatniego pole position do ostatniego startu",
        "shortLabel": "dni",
        "showLink": 0,
        "showFilters": false
      },
      {
        "value": "polepos-last-win-gp-number-asc",
        "label": "Najmniejsza liczba GP która minęła od ostatniego pole position do ostatniego startu",
        "shortLabel": "gp",
        "showLink": 0,
        "showFilters": false
      },
      {
        "value": "polepos-last-win-gp-number-desc",
        "label": "Największa liczba GP która minęła od ostatniego pole position do ostatniego startu",
        "shortLabel": "gp",
        "showLink": 0,
        "showFilters": false
      },
      {
        "value": "polepos-percent-by-season",
        "label": "Procent pole position w sezonie",
        "shortLabel": "%",
        "showLink": 0,
        "showFilters": true
      },
      {
        "value": "polepos-number-by-season",
        "label": "Pole position w sezonie",
        "shortLabel": "pp",
        "showLink": 0,
        "showFilters": true
      },
      {
        "value": "polepos-by-gp",
        "label": "Pole position wg GP",
        "shortLabel": "pp",
        "showLink": 0,
        "showFilters": true
      },
      {
        "value": "polepos-by-circuit",
        "label": "Pole position wg torów",
        "shortLabel": "pp",
        "showLink": 0,
        "showFilters": true
      },
      {
        "value": "polepos-by-teams",
        "label": "Pole position wg zespołów",
        "shortLabel": "pp",
        "showLink": 0,
        "showFilters": true
      },
      {
        "value": "polepos-different-gp",
        "label": "Pole position w różnych GP",
        "shortLabel": "gp",
        "showLink": 0,
        "showFilters": true
      },
      {
        "value": "polepos-different-circuit",
        "label": "Pole position na różnych torach",
        "shortLabel": "tory",
        "showLink": 0,
        "showFilters": true
      },
      {
        "value": "polepos-different-teams",
        "label": "Pole position dla różnych zespołów",
        "shortLabel": "zespoły",
        "showLink": 0,
        "showFilters": true
      }
    ]
  },
  {
    "label": "Wygrane",
    "options": [
      {
        "value": "wins",
        "label": "Najwięcej wygranych",
        "shortLabel": "wyścigi",
        "showLink": 1,
        "showFilters": true
      },
      {
        "value": "wins-percent",
        "label": "Procent wygranych",
        "shortLabel": "%",
        "showLink": 0,
        "showFilters": true
      },
      {
        "value": "wins-no-win-gp-number",
        "label": "Najwięcej GP bez wygranej",
        "shortLabel": "wyścigi",
        "showLink": 1,
        "showFilters": false
      },
      {
        "value": "wins-no-win-percent",
        "label": "Procent GP bez wygranej",
        "shortLabel": "%",
        "showLink": 0,
        "showFilters": true
      },
      {
        "value": "wins-first-win-diff-asc",
        "label": "Najmniejsza liczba dni która minęła od pierwszego startu do pierwszej wygranej",
        "shortLabel": "dni",
        "showLink": 0,
        "showFilters": false
      },
      {
        "value": "wins-first-win-diff-desc",
        "label": "Największa liczba dni która minęła od pierwszego startu do pierwszej wygranej",
        "shortLabel": "dni",
        "showLink": 0,
        "showFilters": false
      },
      {
        "value": "wins-first-win-gp-number-asc",
        "label": "Najmniejsza liczba GP która minęła od pierwszego startu do pierwszej wygranej",
        "shortLabel": "gp",
        "showLink": 0,
        "showFilters": false
      },
      {
        "value": "wins-first-win-gp-number-desc",
        "label": "Największa Liczba GP która minęła od pierwszego startu do pierwszej wygranej",
        "shortLabel": "gp",
        "showLink": 0,
        "showFilters": false
      },
      {
        "value": "wins-last-win-diff-asc",
        "label": "Najmniejsza liczba dni która minęła od ostatniej wygranej do ostatniego startu",
        "shortLabel": "dni",
        "showLink": 0,
        "showFilters": false
      },
      {
        "value": "wins-last-win-diff-desc",
        "label": "Największa liczba dni która minęła od ostatniej wygranej do ostatniego startu",
        "shortLabel": "dni",
        "showLink": 0,
        "showFilters": false
      },
      {
        "value": "wins-last-win-gp-number-asc",
        "label": "Najmniejsza liczba GP która minęła od ostatniej wygranej do ostatniego startu",
        "shortLabel": "gp",
        "showLink": 0,
        "showFilters": false
      },
      {
        "value": "wins-last-win-gp-number-desc",
        "label": "Największa Liczba GP która minęła od ostatniej wygranej do ostatniego startu",
        "shortLabel": "gp",
        "showLink": 0,
        "showFilters": false
      },
      {
        "value": "wins-number-by-season",
        "label": "Liczba wygranych w sezonie",
        "shortLabel": "wygrane",
        "showLink": 0,
        "showFilters": true
      },
      {
        "value": "wins-percent-by-season",
        "label": "Procent wygranych w sezonie",
        "shortLabel": "%",
        "showLink": 0,
        "showFilters": true
      },
      {
        "value": "wins-by-gp",
        "label": "Wygrane wg GP",
        "shortLabel": "wygrane",
        "showLink": 0,
        "showFilters": true
      },
      {
        "value": "wins-by-circuit",
        "label": "Wygrane wg torów",
        "shortLabel": "wygrane",
        "showLink": 0,
        "showFilters": true
      },
      {
        "value": "wins-by-teams",
        "label": "Wygrane wg zespołów",
        "shortLabel": "wygrane",
        "showLink": 0,
        "showFilters": true
      },
      {
        "value": "wins-different-gp",
        "label": "Najwięcej wygranych w różnych GP",
        "shortLabel": "gp",
        "showLink": 0,
        "showFilters": true
      },
      {
        "value": "wins-different-circuit",
        "label": "Najwięcej wygranych na różnych torach",
        "shortLabel": "tory",
        "showLink": 0,
        "showFilters": true
      },
      {
        "value": "wins-different-teams",
        "label": "Najwięcej wygranych dla różnych zespołów",
        "shortLabel": "zespoły",
        "showLink": 0,
        "showFilters": true
      }
    ]
  },
  {
    "label": "Podium",
    "options": [
      {
        "value": "podium",
        "label": "Najwięcej podium",
        "shortLabel": "wyścigi",
        "showLink": 1,
        "showFilters": true
      },
      {
        "value": "podium-percent",
        "label": "Procent podium",
        "shortLabel": "%",
        "showLink": 0,
        "showFilters": true
      },
      {
        "value": "podium-no-win-gp-number",
        "label": "Najwięcej GP bez podium",
        "shortLabel": "wyścigi",
        "showLink": 1,
        "showFilters": false
      },
      {
        "value": "podium-no-win-percent",
        "label": "Procent GP bez podium",
        "shortLabel": "%",
        "showLink": 0,
        "showFilters": true
      },
      {
        "value": "podium-first-win-diff-asc",
        "label": "Najmniejsza liczba dni która minęła od pierwszego startu do pierwszego podium",
        "shortLabel": "dni",
        "showLink": 0,
        "showFilters": false
      },
      {
        "value": "podium-first-win-diff-desc",
        "label": "Największa liczba dni która minęła od pierwszego startu do pierwszego podium",
        "shortLabel": "dni",
        "showLink": 0,
        "showFilters": false
      },
      {
        "value": "podium-first-win-gp-number-asc",
        "label": "Najmniejsza liczba GP która minęła od pierwszego startu do pierwszego podium",
        "shortLabel": "gp",
        "showLink": 0,
        "showFilters": false
      },
      {
        "value": "podium-first-win-gp-number-desc",
        "label": "Największa liczba GP która minęła od pierwszego startu do pierwszego podium",
        "shortLabel": "gp",
        "showLink": 0,
        "showFilters": false
      },
      {
        "value": "podium-last-win-diff-asc",
        "label": "Najmniejsza liczba dni która minęła od ostatniego podium do ostatniego startu",
        "shortLabel": "dni",
        "showLink": 0,
        "showFilters": false
      },
      {
        "value": "podium-last-win-diff-desc",
        "label": "Największa liczba dni która minęła od ostatniego podium do ostatniego startu",
        "shortLabel": "dni",
        "showLink": 0,
        "showFilters": false
      },
      {
        "value": "podium-last-win-gp-number-asc",
        "label": "Najmniejsza liczba GP która minęła od ostatniego podium do ostatniego startu",
        "shortLabel": "gp",
        "showLink": 0,
        "showFilters": false
      },
      {
        "value": "podium-last-win-gp-number-desc",
        "label": "Największa liczba GP która minęła od ostatniego podium do ostatniego startu",
        "shortLabel": "gp",
        "showLink": 0,
        "showFilters": false
      },
      {
        "value": "podium-number-by-season",
        "label": "Liczba podium w sezonie",
        "shortLabel": "podium",
        "showLink": 0,
        "showFilters": true
      },
      {
        "value": "podium-percent-by-season",
        "label": "Procent podium w sezonie",
        "shortLabel": "%",
        "showLink": 0,
        "showFilters": true
      },
      {
        "value": "podium-by-gp",
        "label": "Podium wg GP",
        "shortLabel": "podium",
        "showLink": 0,
        "showFilters": true
      },
      {
        "value": "podium-by-circuit",
        "label": "Podium wg torów",
        "shortLabel": "podium",
        "showLink": 0,
        "showFilters": true
      },
      {
        "value": "podium-different-gp",
        "label": "Podium w różnych GP",
        "shortLabel": "podium",
        "showLink": 0,
        "showFilters": true
      },
      {
        "value": "podium-different-circuit",
        "label": "Podium na różnych torach",
        "shortLabel": "podium",
        "showLink": 0,
        "showFilters": true
      }
    ]
  },
  {
    "label": "Punkty",
    "options": [
      {
        "value": "points",
        "label": "Najwięcej punktów",
        "shortLabel": "pkt",
        "showLink": 1,
        "showFilters": true
      },
      {
        "value": "points-scored-gp-number",
        "label": "Najwięcej GP ze zdobytymi punktami",
        "shortLabel": "gp",
        "showLink": 1,
        "showFilters": true
      },
      {
        "value": "points-percent",
        "label": "Procent GP ze zdobytymi punktami",
        "shortLabel": "%",
        "showLink": 0,
        "showFilters": true
      },
      {
        "value": "points-no-scored-gp-number",
        "label": "Najwięcej GP bez zdobytych punktów",
        "shortLabel": "gp",
        "showLink": 1,
        "showFilters": true
      },
      {
        "value": "points-no-scored-percent",
        "label": "Procent GP bez zdobytych punktów",
        "shortLabel": "%",
        "showLink": 0,
        "showFilters": true
      },
      {
        "value": "points-first-win-diff-asc",
        "label": "Najmniejsza liczba dni która minęła od pierwszego startu do zdobycia pierwszych punktów",
        "shortLabel": "days",
        "showLink": 0,
        "showFilters": false
      },
      {
        "value": "points-first-win-diff-desc",
        "label": "Największa liczba dni która minęła od pierwszego startu do zdobycia pierwszych punktów",
        "shortLabel": "days",
        "showLink": 0,
        "showFilters": false
      },
      {
        "value": "points-first-win-gp-number-asc",
        "label": "Najmniejsza liczba GP która minęła od pierwszego startu do zdobycia pierwszych punktów",
        "shortLabel": "gp",
        "showLink": 0,
        "showFilters": false
      },
      {
        "value": "points-first-win-gp-number-desc",
        "label": "Największa liczba GP która minęła od pierwszego startu do zdobycia pierwszych punktów",
        "shortLabel": "gp",
        "showLink": 0,
        "showFilters": false
      },
      {
        "value": "points-last-win-diff-asc",
        "label": "Najmniejsza liczba dni która minęła od zdobycia ostatnich punktów do ostatniego startu",
        "shortLabel": "days",
        "showLink": 0,
        "showFilters": false
      },
      {
        "value": "points-last-win-diff-desc",
        "label": "Największa liczba dni która minęła od zdobycia ostatnich punktów do ostatniego startu",
        "shortLabel": "days",
        "showLink": 0,
        "showFilters": false
      },
      {
        "value": "points-last-win-gp-number-asc",
        "label": "Najmniejsza liczba GP która minęła od zdobycia ostatnich punktów do ostatniego startu",
        "shortLabel": "gp",
        "showLink": 0,
        "showFilters": false
      },
      {
        "value": "points-last-win-gp-number-desc",
        "label": "Największa liczba GP która minęła od zdobycia ostatnich punktów do ostatniego startu",
        "shortLabel": "gp",
        "showLink": 0,
        "showFilters": false
      },
      {
        "value": "points-number-by-season",
        "label": "Punkty w sezonie",
        "shortLabel": "pkt",
        "showLink": 0,
        "showFilters": true
      },
      {
        "value": "points-by-gp",
        "label": "Punkty wg GP",
        "shortLabel": "pkt",
        "showLink": 0,
        "showFilters": true
      },
      {
        "value": "points-by-circuit",
        "label": "Punkty wg torów",
        "shortLabel": "pkt",
        "showLink": 0,
        "showFilters": true
      }
    ]
  },
  {
    "label": "Najlepsze okrążenia",
    "options": [
      {
        "value": "bestlaps",
        "label": "Najwięcej najlepszych okrążeń",
        "shortLabel": "naj. okrąż.",
        "showLink": 1,
        "showFilters": true
      },
      {
        "value": "bestlaps-percent",
        "label": "Procent GP z najlepszym okrążeniem",
        "shortLabel": "%",
        "showLink": 0,
        "showFilters": true
      },
      {
        "value": "bestlaps-no-win-gp-number",
        "label": "Najwięcej GP bez najlepszego okrążenia",
        "shortLabel": "gp",
        "showLink": 0,
        "showFilters": true
      },
      {
        "value": "bestlaps-no-win-percent",
        "label": "Procent GP bez najlepszego okrążenia",
        "shortLabel": "%",
        "showLink": 0,
        "showFilters": true
      },
      {
        "value": "bestlaps-first-win-diff-asc",
        "label": "Najmniejsza liczba dni która minęła od pierwszego startu do pierwszego najlepszego okrążenia",
        "shortLabel": "dni",
        "showLink": 0,
        "showFilters": false
      },
      {
        "value": "bestlaps-first-win-diff-desc",
        "label": "Największa liczba dni która minęła od pierwszego startu do pierwszego najlepszego okrążenia",
        "shortLabel": "dni",
        "showLink": 0,
        "showFilters": false
      },
      {
        "value": "bestlaps-first-win-gp-number-asc",
        "label": "Najmniejsza liczba GP która minęła od pierwszego startu do pierwszego najlepszego okrążenia",
        "shortLabel": "gp",
        "showLink": 0,
        "showFilters": false
      },
      {
        "value": "bestlaps-first-win-gp-number-desc",
        "label": "Największa liczba GP która minęła od pierwszego startu do pierwszego najlepszego okrążenia",
        "shortLabel": "gp",
        "showLink": 0,
        "showFilters": false
      },
      {
        "value": "bestlaps-last-win-diff-asc",
        "label": "Najmniejsza liczba dni która minęła od ostatniego najlepszego okrążenia do ostatniego startu",
        "shortLabel": "dni",
        "showLink": 0,
        "showFilters": false
      },
      {
        "value": "bestlaps-last-win-diff-desc",
        "label": "Największa liczba dni która minęła od ostatniego najlepszego okrążenia do ostatniego startu",
        "shortLabel": "dni",
        "showLink": 0,
        "showFilters": false
      },
      {
        "value": "bestlaps-last-win-gp-number-asc",
        "label": "Najmniejsza liczba GP która minęła od ostatniego najlepszego okrążenia do ostatniego startu",
        "shortLabel": "gp",
        "showLink": 0,
        "showFilters": false
      },
      {
        "value": "bestlaps-last-win-gp-number-desc",
        "label": "Największa liczba GP która minęła od ostatniego najlepszego okrążenia do ostatniego startu",
        "shortLabel": "gp",
        "showLink": 0,
        "showFilters": false
      },
      {
        "value": "bestlaps-percent-by-season",
        "label": "Procent najlepszych okrążeń w sezonie",
        "shortLabel": "%",
        "showLink": 0,
        "showFilters": true
      },
      {
        "value": "bestlaps-number-by-season",
        "label": "Najlepsze okrążenia w sezonie",
        "shortLabel": "naj. okrąż.",
        "showLink": 0,
        "showFilters": true
      },
      {
        "value": "bestlaps-by-gp",
        "label": "Najlepsze okrążenia wg GP",
        "shortLabel": "naj. okrąż.",
        "showLink": 0,
        "showFilters": true
      },
      {
        "value": "bestlaps-by-circuit",
        "label": "Najlepsze okrążenia wg torów",
        "shortLabel": "naj. okrąż.",
        "showLink": 0,
        "showFilters": true
      },
      {
        "value": "bestlaps-different-gp",
        "label": "Najlepsze okrążenia w różnych GP",
        "shortLabel": "naj. okrąż.",
        "showLink": 0,
        "showFilters": true
      },
      {
        "value": "bestlaps-different-circuit",
        "label": "Najlepsze okrążenia na różnych torach",
        "shortLabel": "naj. okrąż.",
        "showLink": 0,
        "showFilters": true
      }
    ]
  },
  {
    "label": "Sprint",
    "options": [
      {
        "value": "sprints",
        "label": "Najwięcej startów w sprincie",
        "shortLabel": "sprinty",
        "showLink": 1,
        "showFilters": true
      },
      {
        "value": "sprint-wins",
        "label": "Najwięcej wygranych sprintów",
        "shortLabel": "wygrane",
        "showLink": 1,
        "showFilters": true
      },
      {
        "value": "sprints-wins-percent",
        "label": "Procent wygranych sprintów",
        "shortLabel": "%",
        "showLink": 0,
        "showFilters": true
      },
      {
        "value": "sprint-podiums",
        "label": "Najwięcej podium w sprincie",
        "shortLabel": "podium",
        "showLink": 1,
        "showFilters": true
      },
      {
        "value": "sprints-podiums-percent",
        "label": "Procent sprintów z podium",
        "shortLabel": "%",
        "showLink": 0,
        "showFilters": true
      },
      {
        "value": "sprint-points",
        "label": "Najwięcej punktów w sprincie",
        "shortLabel": "pkt",
        "showLink": 1,
        "showFilters": true
      },
      {
        "value": "sprints-points-percent",
        "label": "Procent sprintów z punktami",
        "shortLabel": "%",
        "showLink": 0,
        "showFilters": true
      },
      {
        "value": "sprint-completed",
        "label": "Najwięcej razy sklasyfikowany w sprincie",
        "shortLabel": "sprint",
        "showLink": 1,
        "showFilters": true
      },
      {
        "value": "sprints-completed-percent",
        "label": "Procent sklasyfikowań w sprincie",
        "shortLabel": "%",
        "showLink": 0,
        "showFilters": true
      },
      {
        "value": "sprint-incompleted",
        "label": "Najwięcej razy niesklasyfikowany w sprincie",
        "shortLabel": "sprint",
        "showLink": 1,
        "showFilters": true
      },
      {
        "value": "sprints-incompleted-percent",
        "label": "Procent niesklasyfikowań w sprincie",
        "shortLabel": "%",
        "showLink": 0,
        "showFilters": true
      }
    ]
  },
  {
    "label": "Tytuły Mistrzowskie",
    "options": [
      {
        "value": "champs-number",
        "label": "Najwięcej tytułów MŚ",
        "shortLabel": "mś",
        "showLink": 0,
        "showFilters": false
      },
      {
        "value": "champs-by-seasons",
        "label": "Tytuły mistrzowskie wg sezonów",
        "shortLabel": "sezon",
        "showLink": 0,
        "showFilters": false
      },
      {
        "value": "champs-seasons-needed",
        "label": "Liczba sezonów potrzebnych do zdobycia tytułu MŚ",
        "shortLabel": "sezony",
        "showLink": 0,
        "showFilters": false
      },
      {
        "value": "champs-wins-needed-asc",
        "label": "Najmniejsza liczba wygranych wyścigów w sezonie mistrzowskim",
        "shortLabel": "gp",
        "showLink": 0,
        "showFilters": false
      },
      {
        "value": "champs-wins-needed-desc",
        "label": "Największa liczba wygranych wyścigów w sezonie mistrzowskim",
        "shortLabel": "gp",
        "showLink": 0,
        "showFilters": false
      },
      {
        "value": "champs-wins-percent",
        "label": "Procent wygranych GP w sezonie mistrzowskim",
        "shortLabel": "%",
        "showLink": 0,
        "showFilters": false
      },
      {
        "value": "champs-points",
        "label": "Punkty zdobyte w sezonie mistrzowskim",
        "shortLabel": "pkt",
        "showLink": 0,
        "showFilters": false
      },
      {
        "value": "champs-points-diff",
        "label": "Różnica punktowa pomiędzy MŚ a wicemistrzem",
        "shortLabel": "pkt",
        "showLink": 0,
        "showFilters": false
      },
      {
        "value": "champs-vice-number",
        "label": "Najwięcej tytułów Wicemistrza Świata",
        "shortLabel": "wmś",
        "showLink": 0,
        "showFilters": false
      },
      {
        "value": "champs-podium",
        "label": "Najwięcej razy na podium w MŚ",
        "shortLabel": "podium",
        "showLink": 0,
        "showFilters": false
      },
      {
        "value": "champs-best-result",
        "label": "Najlepsza pozycja w MŚ",
        "shortLabel": "miejsce",
        "showLink": 0,
        "showFilters": false
      },
      {
        "value": "champs-different-teams",
        "label": "Tytuły mistrzowskie w różnych zespołach",
        "shortLabel": "zespoły",
        "showLink": 0,
        "showFilters": false
      }
    ]
  },
  {
    "label": "Inne",
    "options": [
      {
        "value": "seasons",
        "label": "Najwięcej sezonów w F1",
        "shortLabel": "sezon",
        "showLink": 0,
        "showFilters": false
      },
      {
        "value": "gp",
        "label": "Najwięcej udziałów w GP",
        "shortLabel": "gp",
        "showLink": 0,
        "showFilters": true
      },
      {
        "value": "different-teams",
        "label": "Najwięcej udziałów w GP w różnych zespołach",
        "shortLabel": "zespół",
        "showLink": 0,
        "showFilters": true
      },
      {
        "value": "qual",
        "label": "Najwięcej startów w kwalifikacjach",
        "shortLabel": "kwal",
        "showLink": 0,
        "showFilters": true
      },
      {
        "value": "race-fourth-place",
        "label": "Najwięcej wyścigów ukończonych tuż za podium",
        "shortLabel": "wyścigi",
        "showLink": 0,
        "showFilters": true
      },
      {
        "value": "race-first-lap-incomplete",
        "label": "Najwięcej odpadnięć przed ukończeniem pierwszego okrążenia",
        "shortLabel": "wyścigi",
        "showLink": 0,
        "showFilters": true
      },
      {
        "value": "race-not-qualified",
        "label": "Najwięcej niezakwalifikowań do wyścigu",
        "shortLabel": "wyścigi",
        "showLink": 0,
        "showFilters": true
      },
      {
        "value": "race-never-qualified",
        "label": "Kierowcy którzy nigdy nie zakwalifikowali się do wyścigu",
        "shortLabel": "wyścigi",
        "showLink": 1,
        "showFilters": true
      },
      {
        "value": "race-never-completed",
        "label": "Kierowcy którzy nigdy nie zostali sklasyfikowani w wyścigu",
        "shortLabel": "wyścigi",
        "showLink": 1,
        "showFilters": true
      },
      {
        "value": "race-never-finished",
        "label": "Kierowcy którzy nigdy nie ukończyli wyścigu",
        "shortLabel": "wyścigi",
        "showLink": 1,
        "showFilters": true
      },
      {
        "value": "race-never-point-scored",
        "label": "Kierowcy którzy nigdy nie zdobyli punktów",
        "shortLabel": "wyścigi",
        "showLink": 1,
        "showFilters": true
      },
      {
        "value": "race-never-polepos",
        "label": "Kierowcy którzy nigdy nie zdobyli Pole Position",
        "shortLabel": "wyścigi",
        "showLink": 1,
        "showFilters": true
      },
      {
        "value": "race-never-bestlaps",
        "label": "Kierowcy którzy nigdy nie uzyskali najlepszego okrążenia",
        "shortLabel": "wyścigi",
        "showLink": 1,
        "showFilters": true
      },
      {
        "value": "race-never-podium",
        "label": "Kierowcy którzy nigdy nie stanęli na podium",
        "shortLabel": "wyścigi",
        "showLink": 1,
        "showFilters": true
      },
      {
        "value": "race-never-win",
        "label": "Kierowcy którzy nigdy nie wygrali wyścigu",
        "shortLabel": "wyścigi",
        "showLink": 1,
        "showFilters": true
      }
    ]
  }
]