[
  {
    "label": "Wyścig",
    "options": [
      {
        "value": "gp",
        "label": "Udział w Grand Prix"
      },
      {
        "value": "starts",
        "label": "Starty w wyścigach"
      },
      {
        "value": "wins",
        "label": "Wygrane wyścigi"
      },
      {
        "value": "second",
        "label": "Drugie miejsca"
      },
      {
        "value": "third",
        "label": "Trzecie miejsca"
      },
      {
        "value": "points",
        "label": "Punkty (wyścig + sprint)"
      },
      {
        "value": "points-places",
        "label": "Miejsca punktowane"
      },
      {
        "value": "no-points-places",
        "label": "Miejsca niepunktowane"
      },
      {
        "value": "podium",
        "label": "Podium"
      },
      {
        "value": "bestlaps",
        "label": "Najlepsze okrążenia"
      },
      {
        "value": "completed",
        "label": "Sklasyfikowany"
      },
      {
        "value": "incomplete",
        "label": "Niesklasyfikowany"
      },
      {
        "value": "finished",
        "label": "Wyścigi ukończone"
      },
      {
        "value": "retirement",
        "label": "Wyścigi nieukończone"
      },
      {
        "value": "disq",
        "label": "Dyskwalifikacje"
      },
      {
        "value": "not-qualified",
        "label": "Niezakwalifikowany do wyścigu"
      },
      {
        "value": "not-started",
        "label": "Nie wystartował w wyścigu"
      },
      {
        "value": "penalty",
        "label": "Wyścigi z otrzymaną karą"
      },
      {
        "value": "race-places",
        "label": "Wyścigi miejsca..."
      },
      {
        "value": "race-fourth-place",
        "label": "Tuż za podium"
      },
      {
        "value": "polepos-bestlaps-wins",
        "label": "Pole position, najlepsze okrążenie i wygrana"
      },
      {
        "value": "polepos-wins",
        "label": "Pole position i wygrana"
      },
      {
        "value": "bestlaps-wins",
        "label": "Najlepsze okrążenie i wygrana"
      },
      {
        "value": "race-pos-higher-than-grid",
        "label": "Wyścigi ukończonych na pozycji wyższej niż startowa"
      },
      {
        "value": "race-pos-lower-than-grid",
        "label": "Wyścigi ukończone na pozycji niższej niż startowa"
      },
      {
        "value": "wins-no-win-gp-number",
        "label": "Wyścigi bez wygranej"
      },
      {
        "value": "podium-no-win-gp-number",
        "label": "Wyścigi bez podium"
      },
      {
        "value": "bestlaps-no-win-gp-number",
        "label": "Wyścigi bez najlepszego okrążenia"
      }
    ]
  },
  {
    "label": "Pola startowe",
    "options": [
      {
        "value": "qual",
        "label": "Starty w kwalifikacjach"
      },
      {
        "value": "qual-places",
        "label": "Kwalifikacje miejsca..."
      },
      {
        "value": "grid-places",
        "label": "Starty z miejsca..."
      },
      {
        "value": "wins-from-place",
        "label": "Wygrane z miejsca..."
      },
      {
        "value": "podium-from-place",
        "label": "Podium z miejsca..."
      },
      {
        "value": "points-from-place",
        "label": "Punkty z miejsca..."
      },
      {
        "value": "completed-from-place",
        "label": "Sklasyfikowany w wyścigu startując z miejsca..."
      },
      {
        "value": "incomplete-from-place",
        "label": "Niesklasyfikowany w wyścigu startując z miejsca..."
      },
      {
        "value": "finished-from-place",
        "label": "Ukończone wyścigi startując z miejsca..."
      },
      {
        "value": "retirement-from-place",
        "label": "Nieukończone wyścigi startując z miejsca..."
      },
      {
        "value": "race-win-lowest-grid",
        "label": "Wygrana z najniższej pozycji startowej"
      },
      {
        "value": "race-podium-lowest-grid",
        "label": "Podium z najniższej pozycji startowej"
      }
    ]
  },
  {
    "label": "Pole position",
    "options": [
      {
        "value": "polepos",
        "label": "Pole Positions"
      },
      {
        "value": "polepos-no-win-gp-number",
        "label": "GP bez pole position"
      },
      {
        "value": "wins-from-polepos",
        "label": "Wygrane z pole position"
      },
      {
        "value": "podium-from-polepos",
        "label": "Podium z pole position"
      },
      {
        "value": "points-from-polepos",
        "label": "Punkty z pole position"
      },
      {
        "value": "completed-from-polepos",
        "label": "Sklasyfikowany z pole position"
      },
      {
        "value": "incomplete-from-polepos",
        "label": "Niesklasyfikowany z pole position"
      },
      {
        "value": "finished-from-polepos",
        "label": "Ukończone wyścigi z pole position"
      },
      {
        "value": "retirement-from-polepos",
        "label": "Nieukończone wyścigi z pole position"
      },
      {
        "value": "wins-outside-polepos",
        "label": "Wygrane spoza pole position"
      },
      {
        "value": "podium-outside-polepos",
        "label": "Podium spoza pole position"
      },
      {
        "value": "points-outside-polepos",
        "label": "Punkty spoza pole position"
      },
      {
        "value": "completed-outside-polepos",
        "label": "Sklasyfikowany spoza pole position"
      },
      {
        "value": "incomplete-outside-polepos",
        "label": "Niesklasyfikowany spoza pole position"
      },
      {
        "value": "finished-outside-polepos",
        "label": "Ukończone wyścigi spoza pole position"
      },
      {
        "value": "retirement-outside-polepos",
        "label": "Nieukończone wyścigi spoza pole position"
      }
    ]
  },
  {
    "label": "Wygrane",
    "options": []
  },
  {
    "label": "Podium",
    "options": []
  },
  {
    "label": "Punkty",
    "options": []
  },
  {
    "label": "Najlepsze okrążenia",
    "options": []
  },
  {
    "label": "Sprint",
    "options": [
      {
        "value": "sprints",
        "label": "Starty w sprintach"
      },
      {
        "value": "sprint-wins",
        "label": "Wygrane w sprintach"
      },
      {
        "value": "sprint-podiums",
        "label": "Podium w sprintach"
      },
      {
        "value": "sprint-points",
        "label": "Punkty w sprintach"
      },
      {
        "value": "sprint-completed",
        "label": "Sklasyfikowany w sprintach"
      },
      {
        "value": "sprint-incompleted",
        "label": "Niesklasyfikowany w sprintach"
      }
    ]
  }
]