{
  "maxYear": "2018",
  "season": "2017",
  "stats": {
    "contest": {
      "players": "109",
      "rounds": "20",
      "averagePlayers": "85.25",
      "winners": "17",
      "podium": "46"
    },
    "players": {
      "maxPoints": {
        "amount": "664",
        "name": "Daniel  Nowak",
        "alias": "daniel--nowak"
      },
      "maxPointsGP": {
        "amount": "60",
        "name": " Ania",
        "alias": "ania"
      },
      "averagePoints": {
        "amount": "36.17",
        "name": "Jakub Kedzierski",
        "alias": "jakub-kedzierski"
      },
      "averagePointsGP": {
        "amount": "5.29",
        "name": "Jerzy JaAd",
        "alias": "jerzy-jaad"
      },
      "maxRoundPoints": {
        "amount": "93",
        "gp": "ABU",
        "name": "Jerzy JaAd",
        "alias": "jerzy-jaad"
      },
      "wins": {
        "amount": "2",
        "name": " Ania",
        "alias": "ania"
      },
      "second": {
        "amount": "2",
        "name": " Adam1986",
        "alias": "adam1986"
      },
      "third": {
        "amount": "1",
        "name": " Majcher",
        "alias": "majcher"
      },
      "podium": {
        "amount": "3",
        "name": " Adam1986",
        "alias": "adam1986"
      },
      "top10": {
        "amount": "6",
        "name": "Adam Stengert",
        "alias": "adam-stengert"
      }
    }
  },
  "gp": [
    {
      "name": "au",
      "gp": "GP Australii"
    },
    {
      "name": "cn",
      "gp": "GP Chin"
    },
    {
      "name": "bh",
      "gp": "GP Bahrainu"
    },
    {
      "name": "ru",
      "gp": "GP Rosji"
    },
    {
      "name": "es",
      "gp": "GP Hiszpanii"
    },
    {
      "name": "mc",
      "gp": "GP Monaco"
    },
    {
      "name": "ca",
      "gp": "GP Kanady"
    },
    {
      "name": "az",
      "gp": "GP Azerbejd¿anu"
    },
    {
      "name": "at",
      "gp": "GP Austrii"
    },
    {
      "name": "gb",
      "gp": "GP W.Brytanii"
    },
    {
      "name": "hu",
      "gp": "GP Wêgier"
    },
    {
      "name": "be",
      "gp": "GP Belgii"
    },
    {
      "name": "it",
      "gp": "GP W³och"
    },
    {
      "name": "sg",
      "gp": "GP Singapuru"
    },
    {
      "name": "my",
      "gp": "GP Malezji"
    },
    {
      "name": "jp",
      "gp": "GP Japonii"
    },
    {
      "name": "us",
      "gp": "GP USA"
    },
    {
      "name": "mx",
      "gp": "GP Meksyku"
    },
    {
      "name": "br",
      "gp": "GP Brazylii"
    },
    {
      "name": "ae",
      "gp": "GP Abu Dhabi"
    }
  ],
  "classification": [
    {
      "id": "1306",
      "name": "Daniel  Nowak",
      "alias": "daniel--nowak",
      "place": "",
      "diff": "",
      "points": "664",
      "gp": [
        {
          "gp": "GP Australii",
          "name": "au",
          "alias": "australia",
          "place": "8",
          "points": "42"
        },
        {
          "gp": "GP Chin",
          "name": "cn",
          "alias": "china",
          "place": "55",
          "points": "22"
        },
        {
          "gp": "GP Bahrainu",
          "name": "bh",
          "alias": "bahrain",
          "place": "66",
          "points": "20"
        },
        {
          "gp": "GP Rosji",
          "name": "ru",
          "alias": "russia",
          "place": "15",
          "points": "38"
        },
        {
          "gp": "GP Hiszpanii",
          "name": "es",
          "alias": "spain",
          "place": "13",
          "points": "30"
        },
        {
          "gp": "GP Monaco",
          "name": "mc",
          "alias": "monaco",
          "place": "21",
          "points": "30"
        },
        {
          "gp": "GP Kanady",
          "name": "ca",
          "alias": "canada",
          "place": "10",
          "points": "30"
        },
        {
          "gp": "GP Azerbejd¿anu",
          "name": "az",
          "alias": "azerbaijan",
          "place": "19",
          "points": "25"
        },
        {
          "gp": "GP Austrii",
          "name": "at",
          "alias": "austria",
          "place": "24",
          "points": "35"
        },
        {
          "gp": "GP W.Brytanii",
          "name": "gb",
          "alias": "gbritain",
          "place": "53",
          "points": "33"
        },
        {
          "gp": "GP Wêgier",
          "name": "hu",
          "alias": "hungary",
          "place": "3",
          "points": "55"
        },
        {
          "gp": "GP Belgii",
          "name": "be",
          "alias": "belgium",
          "place": "1",
          "points": "55"
        },
        {
          "gp": "GP W³och",
          "name": "it",
          "alias": "italy",
          "place": "6",
          "points": "65"
        },
        {
          "gp": "GP Singapuru",
          "name": "sg",
          "alias": "singapore",
          "place": "48",
          "points": "13"
        },
        {
          "gp": "GP Malezji",
          "name": "my",
          "alias": "malaysia",
          "place": "69",
          "points": "15"
        },
        {
          "gp": "GP Japonii",
          "name": "jp",
          "alias": "japan",
          "place": "51",
          "points": "30"
        },
        {
          "gp": "GP USA",
          "name": "us",
          "alias": "usa",
          "place": "35",
          "points": "40"
        },
        {
          "gp": "GP Meksyku",
          "name": "mx",
          "alias": "mexico",
          "place": "82",
          "points": "10"
        },
        {
          "gp": "GP Brazylii",
          "name": "br",
          "alias": "brazil",
          "place": "35",
          "points": "28"
        },
        {
          "gp": "GP Abu Dhabi",
          "name": "ae",
          "alias": "abu-dhabi",
          "place": "18",
          "points": "48"
        }
      ]
    }
  ],
  "classificationGP": [
    {
      "id": "586",
      "name": " Ania",
      "alias": "ania",
      "place": "",
      "diff": "",
      "points": "60",
      "gp": [
        {
          "gp": "GP Australii",
          "name": "au",
          "alias": "australia",
          "place": "44",
          "points": "0"
        },
        {
          "gp": "GP Chin",
          "name": "cn",
          "alias": "china",
          "place": "73",
          "points": "0"
        },
        {
          "gp": "GP Bahrainu",
          "name": "bh",
          "alias": "bahrain",
          "place": "1",
          "points": "25"
        },
        {
          "gp": "GP Rosji",
          "name": "ru",
          "alias": "russia",
          "place": "1",
          "points": "25"
        },
        {
          "gp": "GP Hiszpanii",
          "name": "es",
          "alias": "spain",
          "place": "71",
          "points": "0"
        },
        {
          "gp": "GP Monaco",
          "name": "mc",
          "alias": "monaco",
          "place": "19",
          "points": "0"
        },
        {
          "gp": "GP Kanady",
          "name": "ca",
          "alias": "canada",
          "place": "41",
          "points": "0"
        },
        {
          "gp": "GP Azerbejd¿anu",
          "name": "az",
          "alias": "azerbaijan",
          "place": "53",
          "points": "0"
        },
        {
          "gp": "GP Austrii",
          "name": "at",
          "alias": "austria",
          "place": "20",
          "points": "0"
        },
        {
          "gp": "GP W.Brytanii",
          "name": "gb",
          "alias": "gbritain",
          "place": "67",
          "points": "0"
        },
        {
          "gp": "GP Wêgier",
          "name": "hu",
          "alias": "hungary",
          "place": "12",
          "points": "0"
        },
        {
          "gp": "GP Belgii",
          "name": "be",
          "alias": "belgium",
          "place": "68",
          "points": "0"
        },
        {
          "gp": "GP W³och",
          "name": "it",
          "alias": "italy",
          "place": "15",
          "points": "0"
        },
        {
          "gp": "GP Singapuru",
          "name": "sg",
          "alias": "singapore",
          "place": "60",
          "points": "0"
        },
        {
          "gp": "GP Malezji",
          "name": "my",
          "alias": "malaysia",
          "place": "71",
          "points": "0"
        },
        {
          "gp": "GP Japonii",
          "name": "jp",
          "alias": "japan",
          "place": "5",
          "points": "10"
        },
        {
          "gp": "GP USA",
          "name": "us",
          "alias": "usa",
          "place": "14",
          "points": "0"
        },
        {
          "gp": "GP Meksyku",
          "name": "mx",
          "alias": "mexico",
          "place": "13",
          "points": "0"
        },
        {
          "gp": "GP Brazylii",
          "name": "br",
          "alias": "brazil",
          "place": "58",
          "points": "0"
        },
        {
          "gp": "GP Abu Dhabi",
          "name": "ae",
          "alias": "abu-dhabi",
          "place": "26",
          "points": "0"
        }
      ]
    }
  ],
  "createTime": 0.031380891799927
}
