  {
    "id": 933,
    "name": "Lewis Hamilton",
    "team": "Mercedes",
    "number": "44",
    "bornDate": "1985-01-07",
    "bornPlace": "Hertfordshire (W.Brytania)",
    "country": "W.Brytania",
    "countryCode": "gb",
    "height": "1,74 m",
    "weight": "64 kg",
    "helmet": "żółto-czerwono-czarny",
    "internet": "www.lewishamilton.com",
    "stats":{
      "wins": 62,
      "points": 2610,
      "podium": 117,
      "polepos": 72,
      "bestlaps": 38,
      "starts": 208,
      "qual": 208,
      "completed": 185,
      "incomplete": 23,
      "disqualifications": 0
    },
    "career":{
      "seasons": "2007 - 2017",
      "results": [
        {
          "season": 2017,
          "place": 1,
          "points": 363
        }
      ],
      "firstGP":{
        "year": "2007",
        "gp": "GP Australii",
        "id": 37,
        "team": "McLaren-Mercedes"
      },
      "lastGP":{
        "year": "2017",
        "gp": "GP Abu Dhabi",
        "id": 74,
        "team": "Mercedes"
      },
      "firstWin":{
        "year": "2007",
        "gp": "GP Kanady",
        "id": 43,
        "team": "McLaren-Mercedes"
      },
      "lastWin":{
        "year": "2017",
        "gp": "GP USA",
        "id": 78,
        "team": "Mercedes"
      },
      "firstPodium":{
        "year": "2007",
        "gp": "GP Australii",
        "id": 37,
        "team": "McLaren-Mercedes"
      },
      "lastPodium":{
        "year": "2017",
        "gp": "GP Abu Dhabi",
        "id": 74,
        "team": "Mercedes"
      },
      "firstQual":{
        "year": "2007",
        "gp": "GP Australii",
        "id": 37,
        "team": "McLaren-Mercedes"
      },
      "lastQual":{
        "year": "2017",
        "gp": "GP Abu Dhabi",
        "id": 74,
        "team": "Mercedes"
      },
      "firstPP":{
        "year": "2007",
        "gp": "GP Kanady",
        "id": 43,
        "team": "McLaren-Mercedes"
      },
      "lastPP":{
        "year": "2017",
        "gp": "GP USA",
        "id": 78,
        "team": "Mercedes"
      },
      "firstBL":{
        "year": "2007",
        "gp": "GP Malezji",
        "id": 60,
        "team": "McLaren-Mercedes"
      },
      "lastBL":{
        "year": "2017",
        "gp": "GP Singapuru",
        "id": 73,
        "team": "Mercedes"
      },
      "gpPlacesWithPoints": 172,
      "gpPlaces":[
        {
          "name": 1,
          "y": 62
        },
        {
          "name": 2,
          "y": 32
        },
        {
          "name": 3,
          "y": 23
        },
        {
          "name": 4,
          "y": 17
        },
        {
          "name": 5,
          "y": 17
        },
        {
          "name": 6,
          "y": 6
        },
        {
          "name": 7,
          "y": 7
        },
        {
          "name": 8,
          "y": 4
        },
        {
          "name": 9,
          "y": 5
        },
        {
          "name": 10,
          "y": 2
        }
      ],
      "ppPlaces":[
        {
          "name": 1,
          "y": 62
        }
      ],
      "gpSeasonPlaces":[
        {
          "name": 1,
          "y": 62
        }
      ],
      "ppSeasonPlaces":[
        {
          "name": 1,
          "y": 62
        }
      ],
      "teams":[
        {
          "year": 2017,
          "id": 52,
          "name": "Mercedes"
        },
        {
          "year": 2016,
          "id": 52,
          "name": "Mercedes"
        },
        {
          "year": 2015,
          "id": 52,
          "name": "Mercedes"
        },
        {
          "year": 2014,
          "id": 52,
          "name": "Mercedes"
        },
        {
          "year": 2013,
          "id": 52,
          "name": "Mercedes"
        },
        {
          "year": 2012,
          "id": 50,
          "name": "McLaren-Mercedes"
        },
        {
          "year": 2011,
          "id": 50,
          "name": "McLaren-Mercedes"
        },
        {
          "year": 2010,
          "id": 50,
          "name": "McLaren-Mercedes"
        },
        {
          "year": 2009,
          "id": 50,
          "name": "McLaren-Mercedes"
        },
        {
          "year": 2008,
          "id": 50,
          "name": "McLaren-Mercedes"
        },
        {
          "year": 2007,
          "id": 50,
          "name": "McLaren-Mercedes"
        }
      ]
    },
    "seasonResults":[
      {
        "id": 37,
        "gp": "GP Australii",
        "countryCode": "au",
        "raceDate": "2018-03-25 06:00",
        "gpyear": 2018,
        "team": "Mercedes",
        "qual": 1,
        "race": 1,
        "bestLap": 1,
        "points": 25,
        "raceCompleted": 1,
        "qualCompleted": 1
      }
    ]
  }
