{
   "id1":"964",
   "id2":"980",
   "season":"2019",
   "amount":20,
   "driver1":{
      "alias":"daniil-kvyat",
      "id":"964",
      "name":"Daniil Kvyat",
      "country":"Rosja",
      "countryCode":"ru",
      "stats":{
         "seasons":"2014 - 2019",
         "seasonsNo":"5",
         "bestResult":"7. miejsce",
         "wins":"0",
         "points":"134.00",
         "podium":"2",
         "polepos":"0",
         "bestlaps":"1",
         "starts":"77",
         "qual":"78",
         "completed":"58",
         "incomplete":"19",
         "disqualifications":"0"
      },
      "ranking":{
         "points":65,
         "podium":122,
         "bestlaps":106,
         "starts":95,
         "qual":105,
         "completed":73,
         "incomplete":144
      }
   },
   "driver2":{
      "alias":"pierre-gasly",
      "id":"980",
      "name":"Pierre Gasly",
      "country":"Francja",
      "countryCode":"fr",
      "stats":{
         "seasons":"2017 - 2019",
         "seasonsNo":"3",
         "bestResult":"15. miejsce",
         "wins":"0",
         "points":"42.00",
         "podium":"0",
         "polepos":"0",
         "bestlaps":"1",
         "starts":"30",
         "qual":"30",
         "completed":"24",
         "incomplete":"6",
         "disqualifications":"0"
      },
      "ranking":{
         "points":115,
         "bestlaps":93,
         "starts":194,
         "qual":207,
         "completed":158,
         "incomplete":288
      }
   },
   "drivers":[
      {
         "value":"986",
         "label":"Albon Alexander"
      },
      {
         "value":"959",
         "label":"Bottas Valtteri"
      },
      {
         "value":"980",
         "label":"Gasly Pierre"
      },
      {
         "value":"979",
         "label":"Giovinazzi Antonio"
      },
      {
         "value":"943",
         "label":"Grosjean Romain"
      },
      {
         "value":"933",
         "label":"Hamilton Lewis"
      },
      {
         "value":"945",
         "label":"Hulkenberg Nico"
      },
      {
         "value":"932",
         "label":"Kubica Robert"
      },
      {
         "value":"964",
         "label":"Kvyat Daniil"
      },
      {
         "value":"982",
         "label":"Leclerc Charles"
      },
      {
         "value":"963",
         "label":"Magnussen Kevin"
      },
      {
         "value":"984",
         "label":"Norris Lando"
      },
      {
         "value":"953",
         "label":"Perez Sergio"
      },
      {
         "value":"570",
         "label":"Raikkonen Kimi"
      },
      {
         "value":"955",
         "label":"Ricciardo Daniel"
      },
      {
         "value":"985",
         "label":"Russell George"
      },
      {
         "value":"970",
         "label":"Sainz Jr Carlos"
      },
      {
         "value":"978",
         "label":"Stroll Lance"
      },
      {
         "value":"969",
         "label":"Verstappen Max"
      },
      {
         "value":"936",
         "label":"Vettel Sebastian"
      }
   ],
   "createTime":0.020562887191772
}
