{
  "alias": "sakhir",
  "id": "69",
  "name": "GP Bahrainu",
  "country": "BAH",
  "countryCode": "bh",
  "circuit": "Sakhir",
  "track": "Bahrain International Circuit",
  "circuitPhoto": "circuit_bah_bg.jpg",
  "trackPhoto": "circuit_bah_map.jpg",
  "yearsInF1": "2004 - 2017 (13 Grand Prix)",
  "lastWinner": "2017-04-16 - Sebastian Vettel (Ferrari)",
  "record": "1:30,252 - Michael Schumacher (Ferrari)",
  "date": "2018-04-08 17:10"
}
