{
  "lastGP": "AUS",
  "lastGPAlias": "australia",
  "lastGPName": "GP Australii",
  "lastGPId": "37",
  "lastGPYear": "2019",
  "nextGP": "BAH",
  "nextGPAlias": "bahrain",
  "nextGPName": "GP Bahrainu",
  "nextGPId": "69",
  "nextGPYear": "2019",
  "nextGPMonth": "03",
  "nextGPDay": "31",
  "nextGPHour": "17",
  "nextGPMin": "09",
  "nextGPQualYear": "2019",
  "nextGPQualMonth": "03",
  "nextGPQualDay": "30",
  "nextGPQualHour": "15",
  "nextGPQualMin": "59",
  "contestRound": "2"
}
