{
  "champs": [
    {
      "name": "Najwięcej tytułów mistrzowskich",
      "alias": "champs"
    },
    {
      "name": "Najwięcej tytułów mistrzowskich w różnych zespołach",
      "alias": "champs-teams"
    },
    {
      "name": "Tytuły mistrzowskie z rzędu",
      "alias": "champs-consecutively"
    },
    {
      "name": "Liczba GP potrzebna do odniesienia tytułu mistrzowskiego",
      "alias": "champs-gp"
    },
    {
      "name": "Liczba sezonów potrzebna do odniesienia tytułu mistrzowskiego",
      "alias": "champs-seasons"
    },
    {
      "name": "Liczba punktów potrzebna do odniesienia tytułu mistrzowskiego",
      "alias": "champs-points"
    },
    {
      "name": "Liczba wygranych w sezonie potrzebna do odniesienia tytułu mistrzowskiego",
      "alias": "champs-season-wins-amount"
    },
    {
      "name": "Procent wygranych w sezonie potrzebny do odniesienia tytułu mistrzowskiego",
      "alias": "champs-season-wins-percent"
    },
    {
      "name": "Przewaga punktowa nad wicemistrzem",
      "alias": "champs-points-advantage"
    },
    {
      "name": "Najwięcej tytułów wicemistrzowskich",
      "alias": "champs-second-place"
    },
    {
      "name": "Najwięcej podium",
      "alias": "champs-podium"
    }
  ],
  "wins": [
    {
      "name": "Najwięcej wygranych",
      "alias": "wins"
    }
  ],
  "race": [
    {
      "name": "Najwięcej startów w wyścigu",
      "alias": "starts"
    }
  ],
  "qual": [
    {
      "name": "Najwięcej startów w kwalifikacjach",
      "alias": "qual"
    }
  ],
  "points": [
    {
      "name": "Najwięcej punktów",
      "alias": "points"
    }
  ],
  "bestlaps": [
    {
      "name": "Najwięcej najlepszych okrążeń",
      "alias": "bestlaps"
    }
  ],
  "podium": [
    {
      "name": "Najwięcej podium",
      "alias": "podium"
    }
  ],
  "grandprix": [
    {
      "name": "Najwięcej wyścigów grand prix",
      "alias": "grand-prix-amount"
    }
  ],
  "circuits": [
    {
      "name": "Najwięcej wyścigów na torze",
      "alias": "circuit-amount"
    }
  ],
  "misc": [
    {
      "name": "Najwięcej sezonów",
      "alias": "seasons"
    }
  ],
  "createTime": 2.3316171169281
}
