[
  {
    "id": "1",
    "link": "driver-events/wins/valtteri-bottas/-/-/-/-/1/",
    "text": "4 zwycięstwo Valtteriego Bottasa"
  },
  {
    "id": "2",
    "link": "driver-events/qual/lewis-hamilton/-/-/-/-/1/",
    "text": "84 pole position Lewisa Hamiltona"
  },
  {
    "id": "3",
    "link": "driver-events/points/nico-hulkenberg/-/-/-/-/1/",
    "text": "480 punktów Nico Hulkenberga"
  },
  {
    "id": "4",
    "link": "team-events/starts/mercedes/-/-/-/-/1/",
    "text": "190 grand prix Mercedesa"
  }
]
